// Jest Snapshot v1, https://goo.gl/fbAQLP

exports[`MovieForm matches the previous snapshot 1`] = `
<DocumentFragment>
  <form>
    <div>
      <label
        for="genre-input"
      >
        Genre
      </label>
      <input
        class=""
        data-testid="genre-input"
        id="genre-input"
        name="genre"
        placeholder="Genre"
        type="text"
        value=""
      />
    </div>
    <div>
      <label
        for="title-input"
      >
        Title
      </label>
      <input
        class=""
        data-testid="title-input"
        id="title-input"
        name="title"
        placeholder="Title"
        type="text"
        value=""
      />
    </div>
    <div>
      <label
        for="year-input"
      >
        Year
      </label>
      <input
        class=""
        data-testid="year-input"
        id="year-input"
        name="year"
        placeholder="Year"
        type="text"
        value=""
      />
    </div>
    <input
      type="submit"
      value="Create Movie"
    />
  </form>
</DocumentFragment>
`;
